{
  "FormData": {
      "RequisitionID": "",
      "ApplicantDept": "",
      "ApplicantID": "",
      "FillerName": "",
      "_theAgentID": "",
      "_theType": "",
      "_theStartDate": "",
      "_theStartTime": "",
      "_theEndDate": "",
      "_theEndTime": "",
      "_theTotalHour":"",
      "_theTotalHour": "",
      "_Flexible_work": "",
      "_theReason": ""
    }
}