{
  "id": "201b536f-2be3-428b-ae1f-518c63b10788",
  "department": "總公司",
  "children": [
    {
      "id": "dede3adf-0a35-4613-a150-db1036053bc4",
      "department": "台北服務處",
      "children": []
    },
    {
      "id": "ba097624-6f3a-45bd-a226-5d80ff83797b",
      "department": "新北服務處",
      "children": [
        {
          "id": "dc6549d2-2461-4e27-bac6-6b6fea83670c",
          "department": "新莊服務中心",
          "children": []
        }
      ]
    },
    {
      "id": "f9d5e1bd-9ce0-4839-a644-5d801de8bd74",
      "department": "台中服務處",
      "children": []
    },
    {
      "id": "bf98bbe6-e10c-46f2-b1ee-8480ae7c4180",
      "department": "彰化服務處",
      "children": []
    },
    {
      "id": "bc1dc906-1800-4507-8a30-24e79a02062d",
      "department": "高雄服務處",
      "children": []
    }
  ]
}